

<svg id="Layer_1" data-name="Layer 1" xmlns="http://www.w3.org/2000/svg" viewbox="0 0 564.99 487.54">
  <defs>
    <style>
          #Layer_1{
            padding-left: 2em;
            padding-top: 2em;
          }
          #Layer_2{
            padding-left: 2em;
            padding-top: 2em;
          }
          .cls-1 {
            fill: none;
            stroke: #9CAFB7;
            stroke-miterlimit: 10;
            stroke-width: 20px;
            stroke-linecap: round;
          }
          .cls-2 {
            fill: none;
            stroke: none;
            stroke-miterlimit: 10;
            stroke-width: 9px;
            stroke-linecap: round;
          }
        </style>
  </defs>
  <title>travel-s-line-beach-drink</title>
  <g>
    <path  class=" BWTQZKUC_0 cls-1 " d="M350.41,476.53q6.55,0,12.91.23V324.1H337.48V476.76q6.06-.22,12.29-.23Z" transform="translate(-16.9 -28.62)"></path>
    <path  class=" BWTQZKUC_1 cls-1 " d="M363.32,476.76q-6.36-.23-12.91-.23h-.64q-6.23,0-12.29.23C279.81,478.84,235,494.56,235,513.66H465.84C465.84,494.56,421,478.83,363.32,476.76Z" transform="translate(-16.9 -28.62)"></path>
    <path  class=" BWTQZKUC_2 cls-1 " d="M206.58,209.16,336.78,324.1H364L575.28,137.6h-40.5L469,176.24c5.4,14.07.41,30.8-12.22,41.86h.33L360.94,303H339.87L243.71,218.1H400.17a32.06,32.06,0,0,1-3.89-5.27c-10.07-17.14-2.46-40.29,17-51.71,17.68-10.38,39.08-7.48,50.38,6L514,137.6H233.61" transform="translate(-16.9 -28.62)"></path>
    <path  class=" BWTQZKUC_3 cls-1 " d="M400.17,218.1H243.71L339.87,303h21.07L457.1,218.1h-.33a46.26,46.26,0,0,1-7,5.09C432.46,233.33,411.67,230.79,400.17,218.1Z" transform="translate(-16.9 -28.62)"></path>
    <path  class=" BWTQZKUC_4 cls-1 " d="M466.7,171.48a32.14,32.14,0,0,1,2.29,4.76l65.79-38.64,14-8.22a5.26,5.26,0,1,0-5.33-9.08L514,137.6l-50.33,29.56A32.07,32.07,0,0,1,466.7,171.48Z" transform="translate(-16.9 -28.62)"></path>
    <path  class=" BWTQZKUC_5 cls-1 " d="M463.66,167.16c-11.3-13.52-32.7-16.43-50.38-6-19.45,11.42-27.06,34.57-17,51.71a32.06,32.06,0,0,0,3.89,5.27c11.5,12.69,32.28,15.23,49.55,5.09a46.26,46.26,0,0,0,7-5.09C469.4,207,474.38,190.31,469,176.24a31.75,31.75,0,0,0-5.33-9.08Z" transform="translate(-16.9 -28.62)"></path>
  </g>
  <path  class=" BWTQZKUC_6 cls-1 " d="M37.5,133.7q0-1,.11-1.93A88.07,88.07,0,0,1,79.19,62.64" transform="translate(-16.9 -28.62)"></path>
  <path  class=" BWTQZKUC_7 cls-1 " d="M77.88,211.73l-1.7-1.12a88,88,0,0,1-38.53-66.49q-.12-1.66-.18-3.34" transform="translate(-16.9 -28.62)"></path>
  <path  class=" BWTQZKUC_8 cls-1 " d="M156,220.29a88.37,88.37,0,0,1-70.18-4" transform="translate(-16.9 -28.62)"></path>
  <path  class=" BWTQZKUC_9 cls-1 " d="M213.37,144.42a88.13,88.13,0,0,1-46.84,71.19l-1.6.82" transform="translate(-16.9 -28.62)"></path>
  <path  class=" BWTQZKUC_10 cls-1 " d="M213.63,137.6" transform="translate(-16.9 -28.62)"></path>
  <path  class=" BWTQZKUC_11 cls-1 " d="M174.32,64.23a88,88,0,0,1,39.1,67.24" transform="translate(-16.9 -28.62)"></path>
  <path  class=" BWTQZKUC_12 cls-1 " d="M85.71,59a88.27,88.27,0,0,1,81.82,1.14" transform="translate(-16.9 -28.62)"></path>
  <path  class=" BWTQZKUC_13 cls-1 " d="M131.24,225.71" transform="translate(-16.9 -28.62)"></path>
  <path  class=" BWTQZKUC_14 cls-1 " d="M131.24,49.49" transform="translate(-16.9 -28.62)"></path>
  <g>
    <path  class=" BWTQZKUC_15 cls-1 " d="M135.69,142.57q40.13-.17,80.25,0" transform="translate(-16.9 -28.62)"></path>
    <path  class=" BWTQZKUC_16 cls-1 " d="M35.22,142.6q38.38-.2,76.76,0" transform="translate(-16.9 -28.62)"></path>
    <path  class=" BWTQZKUC_17 cls-1 " x1="119.38" y1="104.82" x2="199.05" y2="104.82" d="M119.38,104.82L199.05,104.82"></path>
    <path  class=" BWTQZKUC_18 cls-1 " d="M35.22,133.44c26.06,0,51.06,0,77.11,0" transform="translate(-16.9 -28.62)"></path>
  </g>
  <g>
    <path  class=" BWTQZKUC_19 cls-1 " x1="105.92" y1="121.74" x2="141.56" y2="193.38" d="M105.92,121.74L141.56,193.38"></path>
    <path  class=" BWTQZKUC_20 cls-1 " d="M78.08,60.41c11.19,24,23.19,47,35.31,71" transform="translate(-16.9 -28.62)"></path>
    <path  class=" BWTQZKUC_21 cls-1 " d="M131.88,148.08c11.45,23.35,23.41,46.45,34.79,69.84" transform="translate(-16.9 -28.62)"></path>
    <path  class=" BWTQZKUC_22 cls-1 " d="M86.29,56.33q17.17,34.54,34.36,69.07" transform="translate(-16.9 -28.62)"></path>
  </g>
  <g>
    <path  class=" BWTQZKUC_23 cls-1 " d="M115.52,147.95C103,170,89.22,191.36,76.83,213.51" transform="translate(-16.9 -28.62)"></path>
    <path  class=" BWTQZKUC_24 cls-1 " d="M168.29,58,128.2,126.18" transform="translate(-16.9 -28.62)"></path>
    <path  class=" BWTQZKUC_25 cls-1 " d="M124.25,150.69C110.76,173,98,195.7,84.73,218.16" transform="translate(-16.9 -28.62)"></path>
    <path  class=" BWTQZKUC_26 cls-1 " d="M176.18,62.68c-12.91,22.78-27.91,46.78-41.12,69.91" transform="translate(-16.9 -28.62)"></path>
  </g>
  <path  class=" BWTQZKUC_27 cls-1 " cx="107.41" cy="108.99" r="11.98" d="M95.42999999999999,108.99A11.98,11.98 0,1,1 119.39,108.99A11.98,11.98 0,1,1 95.42999999999999,108.99"></path>
  <path  class=" BWTQZKUC_28 cls-1 " cx="108.5" cy="108.5" r="106" d="M2.5,108.5A106.0,106.0 0,1,1 214.5,108.5A106.0,106.0 0,1,1 2.5,108.5"></path> 
<g>
    <path  class=" BWTQZKUC_0 cls-2 " d="M350.41,476.53q6.55,0,12.91.23V324.1H337.48V476.76q6.06-.22,12.29-.23Z" transform="translate(-16.9 -28.62)"></path>
    <path  class=" BWTQZKUC_1 cls-2 " d="M363.32,476.76q-6.36-.23-12.91-.23h-.64q-6.23,0-12.29.23C279.81,478.84,235,494.56,235,513.66H465.84C465.84,494.56,421,478.83,363.32,476.76Z" transform="translate(-16.9 -28.62)"></path>
    <path  class=" BWTQZKUC_2 cls-2 " d="M206.58,209.16,336.78,324.1H364L575.28,137.6h-40.5L469,176.24c5.4,14.07.41,30.8-12.22,41.86h.33L360.94,303H339.87L243.71,218.1H400.17a32.06,32.06,0,0,1-3.89-5.27c-10.07-17.14-2.46-40.29,17-51.71,17.68-10.38,39.08-7.48,50.38,6L514,137.6H233.61" transform="translate(-16.9 -28.62)"></path>
    <path  class=" BWTQZKUC_3 cls-2 " d="M400.17,218.1H243.71L339.87,303h21.07L457.1,218.1h-.33a46.26,46.26,0,0,1-7,5.09C432.46,233.33,411.67,230.79,400.17,218.1Z" transform="translate(-16.9 -28.62)"></path>
    <path  class=" BWTQZKUC_4 cls-2 " d="M466.7,171.48a32.14,32.14,0,0,1,2.29,4.76l65.79-38.64,14-8.22a5.26,5.26,0,1,0-5.33-9.08L514,137.6l-50.33,29.56A32.07,32.07,0,0,1,466.7,171.48Z" transform="translate(-16.9 -28.62)"></path>
    <path  class=" BWTQZKUC_5 cls-2 " d="M463.66,167.16c-11.3-13.52-32.7-16.43-50.38-6-19.45,11.42-27.06,34.57-17,51.71a32.06,32.06,0,0,0,3.89,5.27c11.5,12.69,32.28,15.23,49.55,5.09a46.26,46.26,0,0,0,7-5.09C469.4,207,474.38,190.31,469,176.24a31.75,31.75,0,0,0-5.33-9.08Z" transform="translate(-16.9 -28.62)"></path>
  </g>
  <path  class=" BWTQZKUC_6 cls-2 " d="M37.5,133.7q0-1,.11-1.93A88.07,88.07,0,0,1,79.19,62.64" transform="translate(-16.9 -28.62)"></path>
  <path  class=" BWTQZKUC_7 cls-2 " d="M77.88,211.73l-1.7-1.12a88,88,0,0,1-38.53-66.49q-.12-1.66-.18-3.34" transform="translate(-16.9 -28.62)"></path>
  <path  class=" BWTQZKUC_8 cls-2 " d="M156,220.29a88.37,88.37,0,0,1-70.18-4" transform="translate(-16.9 -28.62)"></path>
  <path  class=" BWTQZKUC_9 cls-2 " d="M213.37,144.42a88.13,88.13,0,0,1-46.84,71.19l-1.6.82" transform="translate(-16.9 -28.62)"></path>
  <path  class=" BWTQZKUC_10 cls-2 " d="M213.63,137.6" transform="translate(-16.9 -28.62)"></path>
  <path  class=" BWTQZKUC_11 cls-2 " d="M174.32,64.23a88,88,0,0,1,39.1,67.24" transform="translate(-16.9 -28.62)"></path>
  <path  class=" BWTQZKUC_12 cls-2 " d="M85.71,59a88.27,88.27,0,0,1,81.82,1.14" transform="translate(-16.9 -28.62)"></path>
  <path  class=" BWTQZKUC_13 cls-2 " d="M131.24,225.71" transform="translate(-16.9 -28.62)"></path>
  <path  class=" BWTQZKUC_14 cls-2 " d="M131.24,49.49" transform="translate(-16.9 -28.62)"></path>
  <g>
    <path  class=" BWTQZKUC_15 cls-2 " d="M135.69,142.57q40.13-.17,80.25,0" transform="translate(-16.9 -28.62)"></path>
    <path  class=" BWTQZKUC_16 cls-2 " d="M35.22,142.6q38.38-.2,76.76,0" transform="translate(-16.9 -28.62)"></path>
    <path  class=" BWTQZKUC_17 cls-2 " x1="119.38" y1="104.82" x2="199.05" y2="104.82" d="M119.38,104.82L199.05,104.82"></path>
    <path  class=" BWTQZKUC_18 cls-2 " d="M35.22,133.44c26.06,0,51.06,0,77.11,0" transform="translate(-16.9 -28.62)"></path>
  </g>
  <g>
    <path  class=" BWTQZKUC_19 cls-2 " x1="105.92" y1="121.74" x2="141.56" y2="193.38" d="M105.92,121.74L141.56,193.38"></path>
    <path  class=" BWTQZKUC_20 cls-2 " d="M78.08,60.41c11.19,24,23.19,47,35.31,71" transform="translate(-16.9 -28.62)"></path>
    <path  class=" BWTQZKUC_21 cls-2 " d="M131.88,148.08c11.45,23.35,23.41,46.45,34.79,69.84" transform="translate(-16.9 -28.62)"></path>
    <path  class=" BWTQZKUC_22 cls-2 " d="M86.29,56.33q17.17,34.54,34.36,69.07" transform="translate(-16.9 -28.62)"></path>
  </g>
  <g>
    <path  class=" BWTQZKUC_23 cls-2 " d="M115.52,147.95C103,170,89.22,191.36,76.83,213.51" transform="translate(-16.9 -28.62)"></path>
    <path  class=" BWTQZKUC_24 cls-2 " d="M168.29,58,128.2,126.18" transform="translate(-16.9 -28.62)"></path>
    <path  class=" BWTQZKUC_25 cls-2 " d="M124.25,150.69C110.76,173,98,195.7,84.73,218.16" transform="translate(-16.9 -28.62)"></path>
    <path  class=" BWTQZKUC_26 cls-2 " d="M176.18,62.68c-12.91,22.78-27.91,46.78-41.12,69.91" transform="translate(-16.9 -28.62)"></path>
  </g>
  <path  class=" BWTQZKUC_27 cls-2 " cx="107.41" cy="108.99" r="11.98" d="M95.42999999999999,108.99A11.98,11.98 0,1,1 119.39,108.99A11.98,11.98 0,1,1 95.42999999999999,108.99"></path>
  <path  class=" BWTQZKUC_28 cls-2 " cx="108.5" cy="108.5" r="106" d="M2.5,108.5A106.0,106.0 0,1,1 214.5,108.5A106.0,106.0 0,1,1 2.5,108.5"></path>
<style>.BWTQZKUC_0{stroke-dasharray:3523 3525;stroke-dashoffset:3524;animation:BWTQZKUC_draw 2000ms ease-out 0ms forwards;}.BWTQZKUC_0{stroke-dasharray:357 359;stroke-dashoffset:358;animation:BWTQZKUC_draw 2000ms ease-out 100ms forwards;}.BWTQZKUC_1{stroke-dasharray:487 489;stroke-dashoffset:488;animation:BWTQZKUC_draw 2000ms ease-out 100ms forwards;}.BWTQZKUC_2{stroke-dasharray:1541 1543;stroke-dashoffset:1542;animation:BWTQZKUC_draw 2000ms ease-out 100ms forwards;}.BWTQZKUC_3{stroke-dasharray:497 499;stroke-dashoffset:498;animation:BWTQZKUC_draw 2000ms ease-out 100ms forwards;}.BWTQZKUC_4{stroke-dasharray:212 214;stroke-dashoffset:213;animation:BWTQZKUC_draw 2000ms ease-out 100ms forwards;}.BWTQZKUC_5{stroke-dasharray:242 244;stroke-dashoffset:243;animation:BWTQZKUC_draw 2000ms ease-out 100ms forwards;}.BWTQZKUC_6{stroke-dasharray:86 88;stroke-dashoffset:87;animation:BWTQZKUC_draw 2000ms ease-out 100ms forwards;}.BWTQZKUC_7{stroke-dasharray:85 87;stroke-dashoffset:86;animation:BWTQZKUC_draw 2000ms ease-out 100ms forwards;}.BWTQZKUC_8{stroke-dasharray:72 74;stroke-dashoffset:73;animation:BWTQZKUC_draw 2000ms ease-out 100ms forwards;}.BWTQZKUC_9{stroke-dasharray:91 93;stroke-dashoffset:92;animation:BWTQZKUC_draw 2000ms ease-out 100ms forwards;}.BWTQZKUC_10{stroke-dasharray:0 2;stroke-dashoffset:1;animation:BWTQZKUC_draw 2000ms ease-out 100ms forwards;}.BWTQZKUC_11{stroke-dasharray:81 83;stroke-dashoffset:82;animation:BWTQZKUC_draw 2000ms ease-out 100ms forwards;}.BWTQZKUC_12{stroke-dasharray:85 87;stroke-dashoffset:86;animation:BWTQZKUC_draw 2000ms ease-out 100ms forwards;}.BWTQZKUC_13{stroke-dasharray:0 2;stroke-dashoffset:1;animation:BWTQZKUC_draw 2000ms ease-out 100ms forwards;}.BWTQZKUC_14{stroke-dasharray:0 2;stroke-dashoffset:1;animation:BWTQZKUC_draw 2000ms ease-out 100ms forwards;}.BWTQZKUC_15{stroke-dasharray:80 82;stroke-dashoffset:81;animation:BWTQZKUC_draw 2000ms ease-out 100ms forwards;}.BWTQZKUC_16{stroke-dasharray:77 79;stroke-dashoffset:78;animation:BWTQZKUC_draw 2000ms ease-out 100ms forwards;}.BWTQZKUC_17{stroke-dasharray:80 82;stroke-dashoffset:81;animation:BWTQZKUC_draw 2000ms ease-out 100ms forwards;}.BWTQZKUC_18{stroke-dasharray:77 79;stroke-dashoffset:78;animation:BWTQZKUC_draw 2000ms ease-out 100ms forwards;}.BWTQZKUC_19{stroke-dasharray:80 82;stroke-dashoffset:81;animation:BWTQZKUC_draw 2000ms ease-out 100ms forwards;}.BWTQZKUC_20{stroke-dasharray:79 81;stroke-dashoffset:80;animation:BWTQZKUC_draw 2000ms ease-out 100ms forwards;}.BWTQZKUC_21{stroke-dasharray:78 80;stroke-dashoffset:79;animation:BWTQZKUC_draw 2000ms ease-out 100ms forwards;}.BWTQZKUC_22{stroke-dasharray:77 79;stroke-dashoffset:78;animation:BWTQZKUC_draw 2000ms ease-out 100ms forwards;}.BWTQZKUC_23{stroke-dasharray:76 78;stroke-dashoffset:77;animation:BWTQZKUC_draw 2000ms ease-out 100ms forwards;}.BWTQZKUC_24{stroke-dasharray:79 81;stroke-dashoffset:80;animation:BWTQZKUC_draw 2000ms ease-out 100ms forwards;}.BWTQZKUC_25{stroke-dasharray:78 80;stroke-dashoffset:79;animation:BWTQZKUC_draw 2000ms ease-out 100ms forwards;}.BWTQZKUC_26{stroke-dasharray:81 83;stroke-dashoffset:82;animation:BWTQZKUC_draw 2000ms ease-out 100ms forwards;}.BWTQZKUC_27{stroke-dasharray:75 77;stroke-dashoffset:76;animation:BWTQZKUC_draw 2000ms ease-out 100ms forwards;}.BWTQZKUC_28{stroke-dasharray:666 668;stroke-dashoffset:667;animation:BWTQZKUC_draw 2000ms ease-out 100ms forwards;}@keyframes BWTQZKUC_draw{100%{stroke-dashoffset:0;}}@keyframes BWTQZKUC_fade{0%{stroke-opacity:1;}94.44444444444444%{stroke-opacity:1;}100%{stroke-opacity:0;}}</style></svg>

