[
  {
    "Name": "Hotel1",
    "Image": "hotel1"
  },
  {
    "Name": "Hotel2",
    "Image": "hotel2"
  },
  {
    "Name": "Hotel3",
    "Image": "hotel3"
  },
  {
    "Name": "Hotel4",
    "Image": "hotel4"
  },
  {
    "Name": "Hotel5",
    "Image": "hotel5"
  },
  {
    "Name": "Hotel6",
    "Image": "rest1"
  },
  {
    "Name": "Hotel7",
    "Image": "rest3"
  },
  {
    "Name": "Hotel8",
    "Image": "rest4"
  },
  {
    "Name": "Hotel9",
    "Image": "rest5"
  },
  {
    "Name": "Hotel10",
    "Image": "rest6"
  }
]
