[
  {
    "Text": "Comment1"
  },
  {
    "Text": "Comment2"
  },
  {
    "Text": "Comment3"
  },
  {
    "Text": "Comment4"
  },
  {
    "Text": "Comment5"
  },
  {
    "Text": "Comment6"
  },
  {
    "Text": "Comment7"
  },
  {
    "Text": "Comment8"
  },
  {
    "Text": "Comment9"
  },
  {
    "Text": "Comment10"
  }
]